127.0.0.1 - - [23/Jun/2017:23:09:39 +0530] "GET / HTTP/1.1" 404 994
0:0:0:0:0:0:0:1 - - [23/Jun/2017:23:09:42 +0530] "GET /servlet/LOgin.html HTTP/1.1" 304 -
0:0:0:0:0:0:0:1 - - [23/Jun/2017:23:09:53 +0530] "GET /servlet/Login?name=jatin&password=jatin&login=Submit+Query HTTP/1.1" 200 57
0:0:0:0:0:0:0:1 - - [23/Jun/2017:23:11:57 +0530] "GET /servlet/Login?name=jatin&password=jatin&login=Submit+Query HTTP/1.1" 200 57
0:0:0:0:0:0:0:1 - - [23/Jun/2017:23:12:30 +0530] "GET /servlet/Login?name=ation&password=jatin&login=Submit+Query HTTP/1.1" 200 57
0:0:0:0:0:0:0:1 - - [23/Jun/2017:23:12:57 +0530] "GET /servlet/Login?name=jatin&password=haie&login=Submit+Query HTTP/1.1" 200 321
0:0:0:0:0:0:0:1 - - [23/Jun/2017:23:13:27 +0530] "GET /servlet/Login?name=x&password=&login=Submit+Query HTTP/1.1" 200 321
0:0:0:0:0:0:0:1 - - [23/Jun/2017:23:13:28 +0530] "POST /servlet/Login HTTP/1.1" 200 321
0:0:0:0:0:0:0:1 - - [23/Jun/2017:23:13:37 +0530] "POST /servlet/Login HTTP/1.1" 200 321
0:0:0:0:0:0:0:1 - - [23/Jun/2017:23:13:41 +0530] "POST /servlet/Login HTTP/1.1" 200 57
0:0:0:0:0:0:0:1 - - [23/Jun/2017:23:13:48 +0530] "POST /servlet/Login HTTP/1.1" 200 57
0:0:0:0:0:0:0:1 - - [23/Jun/2017:23:18:29 +0530] "GET /servlet/WEB-INF/classes/servlet/FirstFilter.java HTTP/1.1" 404 992
0:0:0:0:0:0:0:1 - - [23/Jun/2017:23:18:49 +0530] "GET /servlet/Login?name=jatin&password=jatin&login=Submit+Query HTTP/1.1" 200 57
0:0:0:0:0:0:0:1 - - [23/Jun/2017:23:18:54 +0530] "GET /servlet/Login?name=jatin&password=df&login=Submit+Query HTTP/1.1" 200 321
0:0:0:0:0:0:0:1 - - [23/Jun/2017:23:26:58 +0530] "GET /servlet/WEB-INF/classes/servlet/FirstFilter.java HTTP/1.1" 404 992
0:0:0:0:0:0:0:1 - - [23/Jun/2017:23:27:11 +0530] "GET /servlet/Login?name=as&password=sd&login=Submit+Query HTTP/1.1" 200 321
0:0:0:0:0:0:0:1 - - [23/Jun/2017:23:27:15 +0530] "POST /servlet/Login HTTP/1.1" 200 57
